simulation/detector110_normal_activities.vcd
$date
	Tue Dec  6 14:59:34 2022
$end
$version
	ModelSim Version 2020.2
$end
$timescale
	1ns
$end

$scope module TB_detector110 $end
$var parameter 32 ! _QUIT $end
$var reg 1 " clk $end
$var reg 1 # rst_n $end
$var reg 1 $ aa $end
$var wire 1 % ww $end

$scope module UUT $end
$var wire 1 & a $end
$var wire 1 ' clk $end
$var wire 1 ( reset $end
$var wire 1 % w $end
$var wire 1 ) state [1] $end
$var wire 1 * state [0] $end
$var wire 1 + UNCONNECTED $end
$var wire 1 , n_0 $end
$var wire 1 - n_2 $end
$var wire 1 . n_3 $end
$var wire 1 / n_4 $end
$var wire 1 0 n_5 $end
$var wire 1 1 n_6 $end
$var wire 1 2 n_7 $end
$var wire 1 3 n_8 $end

$scope module state_reg[0] $end
$var wire 1 2 D $end
$var wire 1 ' CK $end
$var wire 1 * Q $end
$var wire 1 . QN $end
$var reg 1 4 NOTIFIER $end
$var wire 1 5 IQ $end
$var wire 1 6 nextstate $end
$var wire 1 7 IQN $end
$upscope $end

$scope module state_reg[1] $end
$var wire 1 3 D $end
$var wire 1 ' CK $end
$var wire 1 ) Q $end
$var wire 1 + QN $end
$var reg 1 8 NOTIFIER $end
$var wire 1 9 IQ $end
$var wire 1 : nextstate $end
$var wire 1 ; IQN $end
$upscope $end

$scope module g218 $end
$var wire 1 1 A $end
$var wire 1 0 B1 $end
$var wire 1 . B2 $end
$var wire 1 3 ZN $end
$var wire 1 < i_8 $end
$var wire 1 = i_9 $end
$upscope $end

$scope module g217 $end
$var wire 1 1 A1 $end
$var wire 1 & A2 $end
$var wire 1 0 B1 $end
$var wire 1 * B2 $end
$var wire 1 , C1 $end
$var wire 1 / C2 $end
$var wire 1 2 ZN $end
$var wire 1 > i_20 $end
$var wire 1 ? i_21 $end
$var wire 1 @ i_24 $end
$var wire 1 A i_22 $end
$var wire 1 B i_23 $end
$upscope $end

$scope module g219 $end
$var wire 1 ) A1 $end
$var wire 1 / A2 $end
$var wire 1 0 ZN $end
$upscope $end

$scope module g220 $end
$var wire 1 ) A1 $end
$var wire 1 . A2 $end
$var wire 1 - A3 $end
$var wire 1 1 ZN $end
$var wire 1 C i_8 $end
$var wire 1 D i_9 $end
$upscope $end

$scope module g221 $end
$var wire 1 - A1 $end
$var wire 1 & A2 $end
$var wire 1 / ZN $end
$var wire 1 E i_10 $end
$upscope $end

$scope module g222 $end
$var wire 1 , A $end
$var wire 1 % ZN $end
$upscope $end

$scope module g223 $end
$var wire 1 ) A1 $end
$var wire 1 * A2 $end
$var wire 1 , ZN $end
$var wire 1 F i_10 $end
$upscope $end

$scope module g224 $end
$var wire 1 ( A $end
$var wire 1 - ZN $end
$upscope $end
$upscope $end
$upscope $end
$enddefinitions $end
#0
$dumpvars
0"
1#
0$
x4
x8
b1 !
x%
x*
x)
x+
x,
0-
x.
1/
10
11
02
03
x5
06
x7
x9
0:
x;
1<
1=
1>
1?
1@
1A
1B
0C
xD
0E
xF
1(
0'
0&
$end
#1000
1"
1'
09
1;
05
17
1.
0*
0F
1+
0)
0D
1,
0%
#2000
0"
0'
#3000
1"
1'
#4000
0"
0'
#5000
1"
1'
#6000
0"
0'
#7000
1"
1'
#8000
0"
0'
#9000
1"
1'
#9999
0#
0(
1-
#10000
0"
0'
#11000
1"
1'
#11998
1$
1&
1E
0/
00
0B
0?
0>
12
16
#12000
0"
0'
#13000
1"
1'
15
07
0.
0=
0<
1*
1B
1?
1>
02
13
06
1:
#14000
0"
0'
#15000
1"
1'
19
0;
05
17
1.
1=
1<
0*
0B
0?
0>
0+
1)
1D
1C
10
1B
1?
1>
01
0<
12
03
16
0:
13
02
1:
06
#16000
0"
0'
#17000
1"
1'
#17997
0$
0&
0E
0A
0?
0>
12
1/
16
#18000
0"
0'
#19000
1"
1'
15
07
0.
0D
0C
1*
1F
0,
11
1A
1?
1>
1<
03
02
1%
0:
06
#20000
0"
0'
#21000
1"
1'
09
1;
05
17
1.
1D
1C
0*
0F
1+
0)
0D
0C
1,
0%
#22000
0"
0'
#23000
1"
1'
#24000
0"
0'
#25000
1"
1'
#26000
0"
0'
#27000
1"
1'
#27996
1$
1&
1E
0/
00
0B
0?
0>
12
16
#28000
0"
0'
#29000
1"
1'
15
07
0.
0=
0<
1*
1B
1?
1>
02
13
06
1:
#29995
0$
